('D:\\viscode\\py\\build\\friendfinder\\PYZ-00.pyz',
 [('__future__',
   'C:\\Program '
   'Files\\WindowsApps\\PythonSoftwareFoundation.Python.3.11_3.11.1264.0_x64__qbz5n2kfra8p0\\Lib\\__future__.py',
   'PYMODULE'),
  ('_compat_pickle',
   'C:\\Program '
   'Files\\WindowsApps\\PythonSoftwareFoundation.Python.3.11_3.11.1264.0_x64__qbz5n2kfra8p0\\Lib\\_compat_pickle.py',
   'PYMODULE'),
  ('_compression',
   'C:\\Program '
   'Files\\WindowsApps\\PythonSoftwareFoundation.Python.3.11_3.11.1264.0_x64__qbz5n2kfra8p0\\Lib\\_compression.py',
   'PYMODULE'),
  ('_py_abc',
   'C:\\Program '
   'Files\\WindowsApps\\PythonSoftwareFoundation.Python.3.11_3.11.1264.0_x64__qbz5n2kfra8p0\\Lib\\_py_abc.py',
   'PYMODULE'),
  ('_pydecimal',
   'C:\\Program '
   'Files\\WindowsApps\\PythonSoftwareFoundation.Python.3.11_3.11.1264.0_x64__qbz5n2kfra8p0\\Lib\\_pydecimal.py',
   'PYMODULE'),
  ('_strptime',
   'C:\\Program '
   'Files\\WindowsApps\\PythonSoftwareFoundation.Python.3.11_3.11.1264.0_x64__qbz5n2kfra8p0\\Lib\\_strptime.py',
   'PYMODULE'),
  ('_threading_local',
   'C:\\Program '
   'Files\\WindowsApps\\PythonSoftwareFoundation.Python.3.11_3.11.1264.0_x64__qbz5n2kfra8p0\\Lib\\_threading_local.py',
   'PYMODULE'),
  ('argparse',
   'C:\\Program '
   'Files\\WindowsApps\\PythonSoftwareFoundation.Python.3.11_3.11.1264.0_x64__qbz5n2kfra8p0\\Lib\\argparse.py',
   'PYMODULE'),
  ('ast',
   'C:\\Program '
   'Files\\WindowsApps\\PythonSoftwareFoundation.Python.3.11_3.11.1264.0_x64__qbz5n2kfra8p0\\Lib\\ast.py',
   'PYMODULE'),
  ('asyncio',
   'C:\\Program '
   'Files\\WindowsApps\\PythonSoftwareFoundation.Python.3.11_3.11.1264.0_x64__qbz5n2kfra8p0\\Lib\\asyncio\\__init__.py',
   'PYMODULE'),
  ('asyncio.base_events',
   'C:\\Program '
   'Files\\WindowsApps\\PythonSoftwareFoundation.Python.3.11_3.11.1264.0_x64__qbz5n2kfra8p0\\Lib\\asyncio\\base_events.py',
   'PYMODULE'),
  ('asyncio.base_futures',
   'C:\\Program '
   'Files\\WindowsApps\\PythonSoftwareFoundation.Python.3.11_3.11.1264.0_x64__qbz5n2kfra8p0\\Lib\\asyncio\\base_futures.py',
   'PYMODULE'),
  ('asyncio.base_subprocess',
   'C:\\Program '
   'Files\\WindowsApps\\PythonSoftwareFoundation.Python.3.11_3.11.1264.0_x64__qbz5n2kfra8p0\\Lib\\asyncio\\base_subprocess.py',
   'PYMODULE'),
  ('asyncio.base_tasks',
   'C:\\Program '
   'Files\\WindowsApps\\PythonSoftwareFoundation.Python.3.11_3.11.1264.0_x64__qbz5n2kfra8p0\\Lib\\asyncio\\base_tasks.py',
   'PYMODULE'),
  ('asyncio.constants',
   'C:\\Program '
   'Files\\WindowsApps\\PythonSoftwareFoundation.Python.3.11_3.11.1264.0_x64__qbz5n2kfra8p0\\Lib\\asyncio\\constants.py',
   'PYMODULE'),
  ('asyncio.coroutines',
   'C:\\Program '
   'Files\\WindowsApps\\PythonSoftwareFoundation.Python.3.11_3.11.1264.0_x64__qbz5n2kfra8p0\\Lib\\asyncio\\coroutines.py',
   'PYMODULE'),
  ('asyncio.events',
   'C:\\Program '
   'Files\\WindowsApps\\PythonSoftwareFoundation.Python.3.11_3.11.1264.0_x64__qbz5n2kfra8p0\\Lib\\asyncio\\events.py',
   'PYMODULE'),
  ('asyncio.exceptions',
   'C:\\Program '
   'Files\\WindowsApps\\PythonSoftwareFoundation.Python.3.11_3.11.1264.0_x64__qbz5n2kfra8p0\\Lib\\asyncio\\exceptions.py',
   'PYMODULE'),
  ('asyncio.format_helpers',
   'C:\\Program '
   'Files\\WindowsApps\\PythonSoftwareFoundation.Python.3.11_3.11.1264.0_x64__qbz5n2kfra8p0\\Lib\\asyncio\\format_helpers.py',
   'PYMODULE'),
  ('asyncio.futures',
   'C:\\Program '
   'Files\\WindowsApps\\PythonSoftwareFoundation.Python.3.11_3.11.1264.0_x64__qbz5n2kfra8p0\\Lib\\asyncio\\futures.py',
   'PYMODULE'),
  ('asyncio.locks',
   'C:\\Program '
   'Files\\WindowsApps\\PythonSoftwareFoundation.Python.3.11_3.11.1264.0_x64__qbz5n2kfra8p0\\Lib\\asyncio\\locks.py',
   'PYMODULE'),
  ('asyncio.log',
   'C:\\Program '
   'Files\\WindowsApps\\PythonSoftwareFoundation.Python.3.11_3.11.1264.0_x64__qbz5n2kfra8p0\\Lib\\asyncio\\log.py',
   'PYMODULE'),
  ('asyncio.mixins',
   'C:\\Program '
   'Files\\WindowsApps\\PythonSoftwareFoundation.Python.3.11_3.11.1264.0_x64__qbz5n2kfra8p0\\Lib\\asyncio\\mixins.py',
   'PYMODULE'),
  ('asyncio.proactor_events',
   'C:\\Program '
   'Files\\WindowsApps\\PythonSoftwareFoundation.Python.3.11_3.11.1264.0_x64__qbz5n2kfra8p0\\Lib\\asyncio\\proactor_events.py',
   'PYMODULE'),
  ('asyncio.protocols',
   'C:\\Program '
   'Files\\WindowsApps\\PythonSoftwareFoundation.Python.3.11_3.11.1264.0_x64__qbz5n2kfra8p0\\Lib\\asyncio\\protocols.py',
   'PYMODULE'),
  ('asyncio.queues',
   'C:\\Program '
   'Files\\WindowsApps\\PythonSoftwareFoundation.Python.3.11_3.11.1264.0_x64__qbz5n2kfra8p0\\Lib\\asyncio\\queues.py',
   'PYMODULE'),
  ('asyncio.runners',
   'C:\\Program '
   'Files\\WindowsApps\\PythonSoftwareFoundation.Python.3.11_3.11.1264.0_x64__qbz5n2kfra8p0\\Lib\\asyncio\\runners.py',
   'PYMODULE'),
  ('asyncio.selector_events',
   'C:\\Program '
   'Files\\WindowsApps\\PythonSoftwareFoundation.Python.3.11_3.11.1264.0_x64__qbz5n2kfra8p0\\Lib\\asyncio\\selector_events.py',
   'PYMODULE'),
  ('asyncio.sslproto',
   'C:\\Program '
   'Files\\WindowsApps\\PythonSoftwareFoundation.Python.3.11_3.11.1264.0_x64__qbz5n2kfra8p0\\Lib\\asyncio\\sslproto.py',
   'PYMODULE'),
  ('asyncio.staggered',
   'C:\\Program '
   'Files\\WindowsApps\\PythonSoftwareFoundation.Python.3.11_3.11.1264.0_x64__qbz5n2kfra8p0\\Lib\\asyncio\\staggered.py',
   'PYMODULE'),
  ('asyncio.streams',
   'C:\\Program '
   'Files\\WindowsApps\\PythonSoftwareFoundation.Python.3.11_3.11.1264.0_x64__qbz5n2kfra8p0\\Lib\\asyncio\\streams.py',
   'PYMODULE'),
  ('asyncio.subprocess',
   'C:\\Program '
   'Files\\WindowsApps\\PythonSoftwareFoundation.Python.3.11_3.11.1264.0_x64__qbz5n2kfra8p0\\Lib\\asyncio\\subprocess.py',
   'PYMODULE'),
  ('asyncio.taskgroups',
   'C:\\Program '
   'Files\\WindowsApps\\PythonSoftwareFoundation.Python.3.11_3.11.1264.0_x64__qbz5n2kfra8p0\\Lib\\asyncio\\taskgroups.py',
   'PYMODULE'),
  ('asyncio.tasks',
   'C:\\Program '
   'Files\\WindowsApps\\PythonSoftwareFoundation.Python.3.11_3.11.1264.0_x64__qbz5n2kfra8p0\\Lib\\asyncio\\tasks.py',
   'PYMODULE'),
  ('asyncio.threads',
   'C:\\Program '
   'Files\\WindowsApps\\PythonSoftwareFoundation.Python.3.11_3.11.1264.0_x64__qbz5n2kfra8p0\\Lib\\asyncio\\threads.py',
   'PYMODULE'),
  ('asyncio.timeouts',
   'C:\\Program '
   'Files\\WindowsApps\\PythonSoftwareFoundation.Python.3.11_3.11.1264.0_x64__qbz5n2kfra8p0\\Lib\\asyncio\\timeouts.py',
   'PYMODULE'),
  ('asyncio.transports',
   'C:\\Program '
   'Files\\WindowsApps\\PythonSoftwareFoundation.Python.3.11_3.11.1264.0_x64__qbz5n2kfra8p0\\Lib\\asyncio\\transports.py',
   'PYMODULE'),
  ('asyncio.trsock',
   'C:\\Program '
   'Files\\WindowsApps\\PythonSoftwareFoundation.Python.3.11_3.11.1264.0_x64__qbz5n2kfra8p0\\Lib\\asyncio\\trsock.py',
   'PYMODULE'),
  ('asyncio.unix_events',
   'C:\\Program '
   'Files\\WindowsApps\\PythonSoftwareFoundation.Python.3.11_3.11.1264.0_x64__qbz5n2kfra8p0\\Lib\\asyncio\\unix_events.py',
   'PYMODULE'),
  ('asyncio.windows_events',
   'C:\\Program '
   'Files\\WindowsApps\\PythonSoftwareFoundation.Python.3.11_3.11.1264.0_x64__qbz5n2kfra8p0\\Lib\\asyncio\\windows_events.py',
   'PYMODULE'),
  ('asyncio.windows_utils',
   'C:\\Program '
   'Files\\WindowsApps\\PythonSoftwareFoundation.Python.3.11_3.11.1264.0_x64__qbz5n2kfra8p0\\Lib\\asyncio\\windows_utils.py',
   'PYMODULE'),
  ('base64',
   'C:\\Program '
   'Files\\WindowsApps\\PythonSoftwareFoundation.Python.3.11_3.11.1264.0_x64__qbz5n2kfra8p0\\Lib\\base64.py',
   'PYMODULE'),
  ('bisect',
   'C:\\Program '
   'Files\\WindowsApps\\PythonSoftwareFoundation.Python.3.11_3.11.1264.0_x64__qbz5n2kfra8p0\\Lib\\bisect.py',
   'PYMODULE'),
  ('bson',
   'd:\\viscode\\py\\.venv\\Lib\\site-packages\\bson\\__init__.py',
   'PYMODULE'),
  ('bson._helpers',
   'd:\\viscode\\py\\.venv\\Lib\\site-packages\\bson\\_helpers.py',
   'PYMODULE'),
  ('bson.binary',
   'd:\\viscode\\py\\.venv\\Lib\\site-packages\\bson\\binary.py',
   'PYMODULE'),
  ('bson.code',
   'd:\\viscode\\py\\.venv\\Lib\\site-packages\\bson\\code.py',
   'PYMODULE'),
  ('bson.codec_options',
   'd:\\viscode\\py\\.venv\\Lib\\site-packages\\bson\\codec_options.py',
   'PYMODULE'),
  ('bson.datetime_ms',
   'd:\\viscode\\py\\.venv\\Lib\\site-packages\\bson\\datetime_ms.py',
   'PYMODULE'),
  ('bson.dbref',
   'd:\\viscode\\py\\.venv\\Lib\\site-packages\\bson\\dbref.py',
   'PYMODULE'),
  ('bson.decimal128',
   'd:\\viscode\\py\\.venv\\Lib\\site-packages\\bson\\decimal128.py',
   'PYMODULE'),
  ('bson.errors',
   'd:\\viscode\\py\\.venv\\Lib\\site-packages\\bson\\errors.py',
   'PYMODULE'),
  ('bson.int64',
   'd:\\viscode\\py\\.venv\\Lib\\site-packages\\bson\\int64.py',
   'PYMODULE'),
  ('bson.max_key',
   'd:\\viscode\\py\\.venv\\Lib\\site-packages\\bson\\max_key.py',
   'PYMODULE'),
  ('bson.min_key',
   'd:\\viscode\\py\\.venv\\Lib\\site-packages\\bson\\min_key.py',
   'PYMODULE'),
  ('bson.objectid',
   'd:\\viscode\\py\\.venv\\Lib\\site-packages\\bson\\objectid.py',
   'PYMODULE'),
  ('bson.raw_bson',
   'd:\\viscode\\py\\.venv\\Lib\\site-packages\\bson\\raw_bson.py',
   'PYMODULE'),
  ('bson.regex',
   'd:\\viscode\\py\\.venv\\Lib\\site-packages\\bson\\regex.py',
   'PYMODULE'),
  ('bson.son',
   'd:\\viscode\\py\\.venv\\Lib\\site-packages\\bson\\son.py',
   'PYMODULE'),
  ('bson.timestamp',
   'd:\\viscode\\py\\.venv\\Lib\\site-packages\\bson\\timestamp.py',
   'PYMODULE'),
  ('bson.typings',
   'd:\\viscode\\py\\.venv\\Lib\\site-packages\\bson\\typings.py',
   'PYMODULE'),
  ('bson.tz_util',
   'd:\\viscode\\py\\.venv\\Lib\\site-packages\\bson\\tz_util.py',
   'PYMODULE'),
  ('bz2',
   'C:\\Program '
   'Files\\WindowsApps\\PythonSoftwareFoundation.Python.3.11_3.11.1264.0_x64__qbz5n2kfra8p0\\Lib\\bz2.py',
   'PYMODULE'),
  ('calendar',
   'C:\\Program '
   'Files\\WindowsApps\\PythonSoftwareFoundation.Python.3.11_3.11.1264.0_x64__qbz5n2kfra8p0\\Lib\\calendar.py',
   'PYMODULE'),
  ('concurrent',
   'C:\\Program '
   'Files\\WindowsApps\\PythonSoftwareFoundation.Python.3.11_3.11.1264.0_x64__qbz5n2kfra8p0\\Lib\\concurrent\\__init__.py',
   'PYMODULE'),
  ('concurrent.futures',
   'C:\\Program '
   'Files\\WindowsApps\\PythonSoftwareFoundation.Python.3.11_3.11.1264.0_x64__qbz5n2kfra8p0\\Lib\\concurrent\\futures\\__init__.py',
   'PYMODULE'),
  ('concurrent.futures._base',
   'C:\\Program '
   'Files\\WindowsApps\\PythonSoftwareFoundation.Python.3.11_3.11.1264.0_x64__qbz5n2kfra8p0\\Lib\\concurrent\\futures\\_base.py',
   'PYMODULE'),
  ('concurrent.futures.process',
   'C:\\Program '
   'Files\\WindowsApps\\PythonSoftwareFoundation.Python.3.11_3.11.1264.0_x64__qbz5n2kfra8p0\\Lib\\concurrent\\futures\\process.py',
   'PYMODULE'),
  ('concurrent.futures.thread',
   'C:\\Program '
   'Files\\WindowsApps\\PythonSoftwareFoundation.Python.3.11_3.11.1264.0_x64__qbz5n2kfra8p0\\Lib\\concurrent\\futures\\thread.py',
   'PYMODULE'),
  ('contextlib',
   'C:\\Program '
   'Files\\WindowsApps\\PythonSoftwareFoundation.Python.3.11_3.11.1264.0_x64__qbz5n2kfra8p0\\Lib\\contextlib.py',
   'PYMODULE'),
  ('contextvars',
   'C:\\Program '
   'Files\\WindowsApps\\PythonSoftwareFoundation.Python.3.11_3.11.1264.0_x64__qbz5n2kfra8p0\\Lib\\contextvars.py',
   'PYMODULE'),
  ('copy',
   'C:\\Program '
   'Files\\WindowsApps\\PythonSoftwareFoundation.Python.3.11_3.11.1264.0_x64__qbz5n2kfra8p0\\Lib\\copy.py',
   'PYMODULE'),
  ('csv',
   'C:\\Program '
   'Files\\WindowsApps\\PythonSoftwareFoundation.Python.3.11_3.11.1264.0_x64__qbz5n2kfra8p0\\Lib\\csv.py',
   'PYMODULE'),
  ('ctypes',
   'C:\\Program '
   'Files\\WindowsApps\\PythonSoftwareFoundation.Python.3.11_3.11.1264.0_x64__qbz5n2kfra8p0\\Lib\\ctypes\\__init__.py',
   'PYMODULE'),
  ('ctypes._endian',
   'C:\\Program '
   'Files\\WindowsApps\\PythonSoftwareFoundation.Python.3.11_3.11.1264.0_x64__qbz5n2kfra8p0\\Lib\\ctypes\\_endian.py',
   'PYMODULE'),
  ('dataclasses',
   'C:\\Program '
   'Files\\WindowsApps\\PythonSoftwareFoundation.Python.3.11_3.11.1264.0_x64__qbz5n2kfra8p0\\Lib\\dataclasses.py',
   'PYMODULE'),
  ('datetime',
   'C:\\Program '
   'Files\\WindowsApps\\PythonSoftwareFoundation.Python.3.11_3.11.1264.0_x64__qbz5n2kfra8p0\\Lib\\datetime.py',
   'PYMODULE'),
  ('decimal',
   'C:\\Program '
   'Files\\WindowsApps\\PythonSoftwareFoundation.Python.3.11_3.11.1264.0_x64__qbz5n2kfra8p0\\Lib\\decimal.py',
   'PYMODULE'),
  ('dis',
   'C:\\Program '
   'Files\\WindowsApps\\PythonSoftwareFoundation.Python.3.11_3.11.1264.0_x64__qbz5n2kfra8p0\\Lib\\dis.py',
   'PYMODULE'),
  ('dns',
   'd:\\viscode\\py\\.venv\\Lib\\site-packages\\dns\\__init__.py',
   'PYMODULE'),
  ('dns._asyncbackend',
   'd:\\viscode\\py\\.venv\\Lib\\site-packages\\dns\\_asyncbackend.py',
   'PYMODULE'),
  ('dns._asyncio_backend',
   'd:\\viscode\\py\\.venv\\Lib\\site-packages\\dns\\_asyncio_backend.py',
   'PYMODULE'),
  ('dns._curio_backend',
   'd:\\viscode\\py\\.venv\\Lib\\site-packages\\dns\\_curio_backend.py',
   'PYMODULE'),
  ('dns._immutable_ctx',
   'd:\\viscode\\py\\.venv\\Lib\\site-packages\\dns\\_immutable_ctx.py',
   'PYMODULE'),
  ('dns._trio_backend',
   'd:\\viscode\\py\\.venv\\Lib\\site-packages\\dns\\_trio_backend.py',
   'PYMODULE'),
  ('dns.asyncbackend',
   'd:\\viscode\\py\\.venv\\Lib\\site-packages\\dns\\asyncbackend.py',
   'PYMODULE'),
  ('dns.dnssectypes',
   'd:\\viscode\\py\\.venv\\Lib\\site-packages\\dns\\dnssectypes.py',
   'PYMODULE'),
  ('dns.edns',
   'd:\\viscode\\py\\.venv\\Lib\\site-packages\\dns\\edns.py',
   'PYMODULE'),
  ('dns.entropy',
   'd:\\viscode\\py\\.venv\\Lib\\site-packages\\dns\\entropy.py',
   'PYMODULE'),
  ('dns.enum',
   'd:\\viscode\\py\\.venv\\Lib\\site-packages\\dns\\enum.py',
   'PYMODULE'),
  ('dns.exception',
   'd:\\viscode\\py\\.venv\\Lib\\site-packages\\dns\\exception.py',
   'PYMODULE'),
  ('dns.flags',
   'd:\\viscode\\py\\.venv\\Lib\\site-packages\\dns\\flags.py',
   'PYMODULE'),
  ('dns.grange',
   'd:\\viscode\\py\\.venv\\Lib\\site-packages\\dns\\grange.py',
   'PYMODULE'),
  ('dns.immutable',
   'd:\\viscode\\py\\.venv\\Lib\\site-packages\\dns\\immutable.py',
   'PYMODULE'),
  ('dns.inet',
   'd:\\viscode\\py\\.venv\\Lib\\site-packages\\dns\\inet.py',
   'PYMODULE'),
  ('dns.ipv4',
   'd:\\viscode\\py\\.venv\\Lib\\site-packages\\dns\\ipv4.py',
   'PYMODULE'),
  ('dns.ipv6',
   'd:\\viscode\\py\\.venv\\Lib\\site-packages\\dns\\ipv6.py',
   'PYMODULE'),
  ('dns.message',
   'd:\\viscode\\py\\.venv\\Lib\\site-packages\\dns\\message.py',
   'PYMODULE'),
  ('dns.name',
   'd:\\viscode\\py\\.venv\\Lib\\site-packages\\dns\\name.py',
   'PYMODULE'),
  ('dns.node',
   'd:\\viscode\\py\\.venv\\Lib\\site-packages\\dns\\node.py',
   'PYMODULE'),
  ('dns.opcode',
   'd:\\viscode\\py\\.venv\\Lib\\site-packages\\dns\\opcode.py',
   'PYMODULE'),
  ('dns.query',
   'd:\\viscode\\py\\.venv\\Lib\\site-packages\\dns\\query.py',
   'PYMODULE'),
  ('dns.quic',
   'd:\\viscode\\py\\.venv\\Lib\\site-packages\\dns\\quic\\__init__.py',
   'PYMODULE'),
  ('dns.quic._asyncio',
   'd:\\viscode\\py\\.venv\\Lib\\site-packages\\dns\\quic\\_asyncio.py',
   'PYMODULE'),
  ('dns.quic._common',
   'd:\\viscode\\py\\.venv\\Lib\\site-packages\\dns\\quic\\_common.py',
   'PYMODULE'),
  ('dns.quic._sync',
   'd:\\viscode\\py\\.venv\\Lib\\site-packages\\dns\\quic\\_sync.py',
   'PYMODULE'),
  ('dns.quic._trio',
   'd:\\viscode\\py\\.venv\\Lib\\site-packages\\dns\\quic\\_trio.py',
   'PYMODULE'),
  ('dns.rcode',
   'd:\\viscode\\py\\.venv\\Lib\\site-packages\\dns\\rcode.py',
   'PYMODULE'),
  ('dns.rdata',
   'd:\\viscode\\py\\.venv\\Lib\\site-packages\\dns\\rdata.py',
   'PYMODULE'),
  ('dns.rdataclass',
   'd:\\viscode\\py\\.venv\\Lib\\site-packages\\dns\\rdataclass.py',
   'PYMODULE'),
  ('dns.rdataset',
   'd:\\viscode\\py\\.venv\\Lib\\site-packages\\dns\\rdataset.py',
   'PYMODULE'),
  ('dns.rdatatype',
   'd:\\viscode\\py\\.venv\\Lib\\site-packages\\dns\\rdatatype.py',
   'PYMODULE'),
  ('dns.rdtypes',
   'd:\\viscode\\py\\.venv\\Lib\\site-packages\\dns\\rdtypes\\__init__.py',
   'PYMODULE'),
  ('dns.rdtypes.ANY',
   'd:\\viscode\\py\\.venv\\Lib\\site-packages\\dns\\rdtypes\\ANY\\__init__.py',
   'PYMODULE'),
  ('dns.rdtypes.ANY.AFSDB',
   'd:\\viscode\\py\\.venv\\Lib\\site-packages\\dns\\rdtypes\\ANY\\AFSDB.py',
   'PYMODULE'),
  ('dns.rdtypes.ANY.AMTRELAY',
   'd:\\viscode\\py\\.venv\\Lib\\site-packages\\dns\\rdtypes\\ANY\\AMTRELAY.py',
   'PYMODULE'),
  ('dns.rdtypes.ANY.AVC',
   'd:\\viscode\\py\\.venv\\Lib\\site-packages\\dns\\rdtypes\\ANY\\AVC.py',
   'PYMODULE'),
  ('dns.rdtypes.ANY.CAA',
   'd:\\viscode\\py\\.venv\\Lib\\site-packages\\dns\\rdtypes\\ANY\\CAA.py',
   'PYMODULE'),
  ('dns.rdtypes.ANY.CDNSKEY',
   'd:\\viscode\\py\\.venv\\Lib\\site-packages\\dns\\rdtypes\\ANY\\CDNSKEY.py',
   'PYMODULE'),
  ('dns.rdtypes.ANY.CDS',
   'd:\\viscode\\py\\.venv\\Lib\\site-packages\\dns\\rdtypes\\ANY\\CDS.py',
   'PYMODULE'),
  ('dns.rdtypes.ANY.CERT',
   'd:\\viscode\\py\\.venv\\Lib\\site-packages\\dns\\rdtypes\\ANY\\CERT.py',
   'PYMODULE'),
  ('dns.rdtypes.ANY.CNAME',
   'd:\\viscode\\py\\.venv\\Lib\\site-packages\\dns\\rdtypes\\ANY\\CNAME.py',
   'PYMODULE'),
  ('dns.rdtypes.ANY.CSYNC',
   'd:\\viscode\\py\\.venv\\Lib\\site-packages\\dns\\rdtypes\\ANY\\CSYNC.py',
   'PYMODULE'),
  ('dns.rdtypes.ANY.DLV',
   'd:\\viscode\\py\\.venv\\Lib\\site-packages\\dns\\rdtypes\\ANY\\DLV.py',
   'PYMODULE'),
  ('dns.rdtypes.ANY.DNAME',
   'd:\\viscode\\py\\.venv\\Lib\\site-packages\\dns\\rdtypes\\ANY\\DNAME.py',
   'PYMODULE'),
  ('dns.rdtypes.ANY.DNSKEY',
   'd:\\viscode\\py\\.venv\\Lib\\site-packages\\dns\\rdtypes\\ANY\\DNSKEY.py',
   'PYMODULE'),
  ('dns.rdtypes.ANY.DS',
   'd:\\viscode\\py\\.venv\\Lib\\site-packages\\dns\\rdtypes\\ANY\\DS.py',
   'PYMODULE'),
  ('dns.rdtypes.ANY.EUI48',
   'd:\\viscode\\py\\.venv\\Lib\\site-packages\\dns\\rdtypes\\ANY\\EUI48.py',
   'PYMODULE'),
  ('dns.rdtypes.ANY.EUI64',
   'd:\\viscode\\py\\.venv\\Lib\\site-packages\\dns\\rdtypes\\ANY\\EUI64.py',
   'PYMODULE'),
  ('dns.rdtypes.ANY.GPOS',
   'd:\\viscode\\py\\.venv\\Lib\\site-packages\\dns\\rdtypes\\ANY\\GPOS.py',
   'PYMODULE'),
  ('dns.rdtypes.ANY.HINFO',
   'd:\\viscode\\py\\.venv\\Lib\\site-packages\\dns\\rdtypes\\ANY\\HINFO.py',
   'PYMODULE'),
  ('dns.rdtypes.ANY.HIP',
   'd:\\viscode\\py\\.venv\\Lib\\site-packages\\dns\\rdtypes\\ANY\\HIP.py',
   'PYMODULE'),
  ('dns.rdtypes.ANY.ISDN',
   'd:\\viscode\\py\\.venv\\Lib\\site-packages\\dns\\rdtypes\\ANY\\ISDN.py',
   'PYMODULE'),
  ('dns.rdtypes.ANY.L32',
   'd:\\viscode\\py\\.venv\\Lib\\site-packages\\dns\\rdtypes\\ANY\\L32.py',
   'PYMODULE'),
  ('dns.rdtypes.ANY.L64',
   'd:\\viscode\\py\\.venv\\Lib\\site-packages\\dns\\rdtypes\\ANY\\L64.py',
   'PYMODULE'),
  ('dns.rdtypes.ANY.LOC',
   'd:\\viscode\\py\\.venv\\Lib\\site-packages\\dns\\rdtypes\\ANY\\LOC.py',
   'PYMODULE'),
  ('dns.rdtypes.ANY.LP',
   'd:\\viscode\\py\\.venv\\Lib\\site-packages\\dns\\rdtypes\\ANY\\LP.py',
   'PYMODULE'),
  ('dns.rdtypes.ANY.MX',
   'd:\\viscode\\py\\.venv\\Lib\\site-packages\\dns\\rdtypes\\ANY\\MX.py',
   'PYMODULE'),
  ('dns.rdtypes.ANY.NID',
   'd:\\viscode\\py\\.venv\\Lib\\site-packages\\dns\\rdtypes\\ANY\\NID.py',
   'PYMODULE'),
  ('dns.rdtypes.ANY.NINFO',
   'd:\\viscode\\py\\.venv\\Lib\\site-packages\\dns\\rdtypes\\ANY\\NINFO.py',
   'PYMODULE'),
  ('dns.rdtypes.ANY.NS',
   'd:\\viscode\\py\\.venv\\Lib\\site-packages\\dns\\rdtypes\\ANY\\NS.py',
   'PYMODULE'),
  ('dns.rdtypes.ANY.NSEC',
   'd:\\viscode\\py\\.venv\\Lib\\site-packages\\dns\\rdtypes\\ANY\\NSEC.py',
   'PYMODULE'),
  ('dns.rdtypes.ANY.NSEC3',
   'd:\\viscode\\py\\.venv\\Lib\\site-packages\\dns\\rdtypes\\ANY\\NSEC3.py',
   'PYMODULE'),
  ('dns.rdtypes.ANY.NSEC3PARAM',
   'd:\\viscode\\py\\.venv\\Lib\\site-packages\\dns\\rdtypes\\ANY\\NSEC3PARAM.py',
   'PYMODULE'),
  ('dns.rdtypes.ANY.OPENPGPKEY',
   'd:\\viscode\\py\\.venv\\Lib\\site-packages\\dns\\rdtypes\\ANY\\OPENPGPKEY.py',
   'PYMODULE'),
  ('dns.rdtypes.ANY.OPT',
   'd:\\viscode\\py\\.venv\\Lib\\site-packages\\dns\\rdtypes\\ANY\\OPT.py',
   'PYMODULE'),
  ('dns.rdtypes.ANY.PTR',
   'd:\\viscode\\py\\.venv\\Lib\\site-packages\\dns\\rdtypes\\ANY\\PTR.py',
   'PYMODULE'),
  ('dns.rdtypes.ANY.RP',
   'd:\\viscode\\py\\.venv\\Lib\\site-packages\\dns\\rdtypes\\ANY\\RP.py',
   'PYMODULE'),
  ('dns.rdtypes.ANY.RRSIG',
   'd:\\viscode\\py\\.venv\\Lib\\site-packages\\dns\\rdtypes\\ANY\\RRSIG.py',
   'PYMODULE'),
  ('dns.rdtypes.ANY.RT',
   'd:\\viscode\\py\\.venv\\Lib\\site-packages\\dns\\rdtypes\\ANY\\RT.py',
   'PYMODULE'),
  ('dns.rdtypes.ANY.SMIMEA',
   'd:\\viscode\\py\\.venv\\Lib\\site-packages\\dns\\rdtypes\\ANY\\SMIMEA.py',
   'PYMODULE'),
  ('dns.rdtypes.ANY.SOA',
   'd:\\viscode\\py\\.venv\\Lib\\site-packages\\dns\\rdtypes\\ANY\\SOA.py',
   'PYMODULE'),
  ('dns.rdtypes.ANY.SPF',
   'd:\\viscode\\py\\.venv\\Lib\\site-packages\\dns\\rdtypes\\ANY\\SPF.py',
   'PYMODULE'),
  ('dns.rdtypes.ANY.SSHFP',
   'd:\\viscode\\py\\.venv\\Lib\\site-packages\\dns\\rdtypes\\ANY\\SSHFP.py',
   'PYMODULE'),
  ('dns.rdtypes.ANY.TKEY',
   'd:\\viscode\\py\\.venv\\Lib\\site-packages\\dns\\rdtypes\\ANY\\TKEY.py',
   'PYMODULE'),
  ('dns.rdtypes.ANY.TLSA',
   'd:\\viscode\\py\\.venv\\Lib\\site-packages\\dns\\rdtypes\\ANY\\TLSA.py',
   'PYMODULE'),
  ('dns.rdtypes.ANY.TSIG',
   'd:\\viscode\\py\\.venv\\Lib\\site-packages\\dns\\rdtypes\\ANY\\TSIG.py',
   'PYMODULE'),
  ('dns.rdtypes.ANY.TXT',
   'd:\\viscode\\py\\.venv\\Lib\\site-packages\\dns\\rdtypes\\ANY\\TXT.py',
   'PYMODULE'),
  ('dns.rdtypes.ANY.URI',
   'd:\\viscode\\py\\.venv\\Lib\\site-packages\\dns\\rdtypes\\ANY\\URI.py',
   'PYMODULE'),
  ('dns.rdtypes.ANY.X25',
   'd:\\viscode\\py\\.venv\\Lib\\site-packages\\dns\\rdtypes\\ANY\\X25.py',
   'PYMODULE'),
  ('dns.rdtypes.ANY.ZONEMD',
   'd:\\viscode\\py\\.venv\\Lib\\site-packages\\dns\\rdtypes\\ANY\\ZONEMD.py',
   'PYMODULE'),
  ('dns.rdtypes.CH',
   'd:\\viscode\\py\\.venv\\Lib\\site-packages\\dns\\rdtypes\\CH\\__init__.py',
   'PYMODULE'),
  ('dns.rdtypes.CH.A',
   'd:\\viscode\\py\\.venv\\Lib\\site-packages\\dns\\rdtypes\\CH\\A.py',
   'PYMODULE'),
  ('dns.rdtypes.IN',
   'd:\\viscode\\py\\.venv\\Lib\\site-packages\\dns\\rdtypes\\IN\\__init__.py',
   'PYMODULE'),
  ('dns.rdtypes.IN.A',
   'd:\\viscode\\py\\.venv\\Lib\\site-packages\\dns\\rdtypes\\IN\\A.py',
   'PYMODULE'),
  ('dns.rdtypes.IN.AAAA',
   'd:\\viscode\\py\\.venv\\Lib\\site-packages\\dns\\rdtypes\\IN\\AAAA.py',
   'PYMODULE'),
  ('dns.rdtypes.IN.APL',
   'd:\\viscode\\py\\.venv\\Lib\\site-packages\\dns\\rdtypes\\IN\\APL.py',
   'PYMODULE'),
  ('dns.rdtypes.IN.DHCID',
   'd:\\viscode\\py\\.venv\\Lib\\site-packages\\dns\\rdtypes\\IN\\DHCID.py',
   'PYMODULE'),
  ('dns.rdtypes.IN.HTTPS',
   'd:\\viscode\\py\\.venv\\Lib\\site-packages\\dns\\rdtypes\\IN\\HTTPS.py',
   'PYMODULE'),
  ('dns.rdtypes.IN.IPSECKEY',
   'd:\\viscode\\py\\.venv\\Lib\\site-packages\\dns\\rdtypes\\IN\\IPSECKEY.py',
   'PYMODULE'),
  ('dns.rdtypes.IN.KX',
   'd:\\viscode\\py\\.venv\\Lib\\site-packages\\dns\\rdtypes\\IN\\KX.py',
   'PYMODULE'),
  ('dns.rdtypes.IN.NAPTR',
   'd:\\viscode\\py\\.venv\\Lib\\site-packages\\dns\\rdtypes\\IN\\NAPTR.py',
   'PYMODULE'),
  ('dns.rdtypes.IN.NSAP',
   'd:\\viscode\\py\\.venv\\Lib\\site-packages\\dns\\rdtypes\\IN\\NSAP.py',
   'PYMODULE'),
  ('dns.rdtypes.IN.NSAP_PTR',
   'd:\\viscode\\py\\.venv\\Lib\\site-packages\\dns\\rdtypes\\IN\\NSAP_PTR.py',
   'PYMODULE'),
  ('dns.rdtypes.IN.PX',
   'd:\\viscode\\py\\.venv\\Lib\\site-packages\\dns\\rdtypes\\IN\\PX.py',
   'PYMODULE'),
  ('dns.rdtypes.IN.SRV',
   'd:\\viscode\\py\\.venv\\Lib\\site-packages\\dns\\rdtypes\\IN\\SRV.py',
   'PYMODULE'),
  ('dns.rdtypes.IN.SVCB',
   'd:\\viscode\\py\\.venv\\Lib\\site-packages\\dns\\rdtypes\\IN\\SVCB.py',
   'PYMODULE'),
  ('dns.rdtypes.IN.WKS',
   'd:\\viscode\\py\\.venv\\Lib\\site-packages\\dns\\rdtypes\\IN\\WKS.py',
   'PYMODULE'),
  ('dns.rdtypes.dnskeybase',
   'd:\\viscode\\py\\.venv\\Lib\\site-packages\\dns\\rdtypes\\dnskeybase.py',
   'PYMODULE'),
  ('dns.rdtypes.dsbase',
   'd:\\viscode\\py\\.venv\\Lib\\site-packages\\dns\\rdtypes\\dsbase.py',
   'PYMODULE'),
  ('dns.rdtypes.euibase',
   'd:\\viscode\\py\\.venv\\Lib\\site-packages\\dns\\rdtypes\\euibase.py',
   'PYMODULE'),
  ('dns.rdtypes.mxbase',
   'd:\\viscode\\py\\.venv\\Lib\\site-packages\\dns\\rdtypes\\mxbase.py',
   'PYMODULE'),
  ('dns.rdtypes.nsbase',
   'd:\\viscode\\py\\.venv\\Lib\\site-packages\\dns\\rdtypes\\nsbase.py',
   'PYMODULE'),
  ('dns.rdtypes.svcbbase',
   'd:\\viscode\\py\\.venv\\Lib\\site-packages\\dns\\rdtypes\\svcbbase.py',
   'PYMODULE'),
  ('dns.rdtypes.tlsabase',
   'd:\\viscode\\py\\.venv\\Lib\\site-packages\\dns\\rdtypes\\tlsabase.py',
   'PYMODULE'),
  ('dns.rdtypes.txtbase',
   'd:\\viscode\\py\\.venv\\Lib\\site-packages\\dns\\rdtypes\\txtbase.py',
   'PYMODULE'),
  ('dns.rdtypes.util',
   'd:\\viscode\\py\\.venv\\Lib\\site-packages\\dns\\rdtypes\\util.py',
   'PYMODULE'),
  ('dns.renderer',
   'd:\\viscode\\py\\.venv\\Lib\\site-packages\\dns\\renderer.py',
   'PYMODULE'),
  ('dns.resolver',
   'd:\\viscode\\py\\.venv\\Lib\\site-packages\\dns\\resolver.py',
   'PYMODULE'),
  ('dns.reversename',
   'd:\\viscode\\py\\.venv\\Lib\\site-packages\\dns\\reversename.py',
   'PYMODULE'),
  ('dns.rrset',
   'd:\\viscode\\py\\.venv\\Lib\\site-packages\\dns\\rrset.py',
   'PYMODULE'),
  ('dns.serial',
   'd:\\viscode\\py\\.venv\\Lib\\site-packages\\dns\\serial.py',
   'PYMODULE'),
  ('dns.set',
   'd:\\viscode\\py\\.venv\\Lib\\site-packages\\dns\\set.py',
   'PYMODULE'),
  ('dns.tokenizer',
   'd:\\viscode\\py\\.venv\\Lib\\site-packages\\dns\\tokenizer.py',
   'PYMODULE'),
  ('dns.transaction',
   'd:\\viscode\\py\\.venv\\Lib\\site-packages\\dns\\transaction.py',
   'PYMODULE'),
  ('dns.tsig',
   'd:\\viscode\\py\\.venv\\Lib\\site-packages\\dns\\tsig.py',
   'PYMODULE'),
  ('dns.ttl',
   'd:\\viscode\\py\\.venv\\Lib\\site-packages\\dns\\ttl.py',
   'PYMODULE'),
  ('dns.update',
   'd:\\viscode\\py\\.venv\\Lib\\site-packages\\dns\\update.py',
   'PYMODULE'),
  ('dns.version',
   'd:\\viscode\\py\\.venv\\Lib\\site-packages\\dns\\version.py',
   'PYMODULE'),
  ('dns.win32util',
   'd:\\viscode\\py\\.venv\\Lib\\site-packages\\dns\\win32util.py',
   'PYMODULE'),
  ('dns.wire',
   'd:\\viscode\\py\\.venv\\Lib\\site-packages\\dns\\wire.py',
   'PYMODULE'),
  ('dns.xfr',
   'd:\\viscode\\py\\.venv\\Lib\\site-packages\\dns\\xfr.py',
   'PYMODULE'),
  ('dns.zone',
   'd:\\viscode\\py\\.venv\\Lib\\site-packages\\dns\\zone.py',
   'PYMODULE'),
  ('dns.zonefile',
   'd:\\viscode\\py\\.venv\\Lib\\site-packages\\dns\\zonefile.py',
   'PYMODULE'),
  ('dns.zonetypes',
   'd:\\viscode\\py\\.venv\\Lib\\site-packages\\dns\\zonetypes.py',
   'PYMODULE'),
  ('email',
   'C:\\Program '
   'Files\\WindowsApps\\PythonSoftwareFoundation.Python.3.11_3.11.1264.0_x64__qbz5n2kfra8p0\\Lib\\email\\__init__.py',
   'PYMODULE'),
  ('email._encoded_words',
   'C:\\Program '
   'Files\\WindowsApps\\PythonSoftwareFoundation.Python.3.11_3.11.1264.0_x64__qbz5n2kfra8p0\\Lib\\email\\_encoded_words.py',
   'PYMODULE'),
  ('email._header_value_parser',
   'C:\\Program '
   'Files\\WindowsApps\\PythonSoftwareFoundation.Python.3.11_3.11.1264.0_x64__qbz5n2kfra8p0\\Lib\\email\\_header_value_parser.py',
   'PYMODULE'),
  ('email._parseaddr',
   'C:\\Program '
   'Files\\WindowsApps\\PythonSoftwareFoundation.Python.3.11_3.11.1264.0_x64__qbz5n2kfra8p0\\Lib\\email\\_parseaddr.py',
   'PYMODULE'),
  ('email._policybase',
   'C:\\Program '
   'Files\\WindowsApps\\PythonSoftwareFoundation.Python.3.11_3.11.1264.0_x64__qbz5n2kfra8p0\\Lib\\email\\_policybase.py',
   'PYMODULE'),
  ('email.base64mime',
   'C:\\Program '
   'Files\\WindowsApps\\PythonSoftwareFoundation.Python.3.11_3.11.1264.0_x64__qbz5n2kfra8p0\\Lib\\email\\base64mime.py',
   'PYMODULE'),
  ('email.charset',
   'C:\\Program '
   'Files\\WindowsApps\\PythonSoftwareFoundation.Python.3.11_3.11.1264.0_x64__qbz5n2kfra8p0\\Lib\\email\\charset.py',
   'PYMODULE'),
  ('email.contentmanager',
   'C:\\Program '
   'Files\\WindowsApps\\PythonSoftwareFoundation.Python.3.11_3.11.1264.0_x64__qbz5n2kfra8p0\\Lib\\email\\contentmanager.py',
   'PYMODULE'),
  ('email.encoders',
   'C:\\Program '
   'Files\\WindowsApps\\PythonSoftwareFoundation.Python.3.11_3.11.1264.0_x64__qbz5n2kfra8p0\\Lib\\email\\encoders.py',
   'PYMODULE'),
  ('email.errors',
   'C:\\Program '
   'Files\\WindowsApps\\PythonSoftwareFoundation.Python.3.11_3.11.1264.0_x64__qbz5n2kfra8p0\\Lib\\email\\errors.py',
   'PYMODULE'),
  ('email.feedparser',
   'C:\\Program '
   'Files\\WindowsApps\\PythonSoftwareFoundation.Python.3.11_3.11.1264.0_x64__qbz5n2kfra8p0\\Lib\\email\\feedparser.py',
   'PYMODULE'),
  ('email.generator',
   'C:\\Program '
   'Files\\WindowsApps\\PythonSoftwareFoundation.Python.3.11_3.11.1264.0_x64__qbz5n2kfra8p0\\Lib\\email\\generator.py',
   'PYMODULE'),
  ('email.header',
   'C:\\Program '
   'Files\\WindowsApps\\PythonSoftwareFoundation.Python.3.11_3.11.1264.0_x64__qbz5n2kfra8p0\\Lib\\email\\header.py',
   'PYMODULE'),
  ('email.headerregistry',
   'C:\\Program '
   'Files\\WindowsApps\\PythonSoftwareFoundation.Python.3.11_3.11.1264.0_x64__qbz5n2kfra8p0\\Lib\\email\\headerregistry.py',
   'PYMODULE'),
  ('email.iterators',
   'C:\\Program '
   'Files\\WindowsApps\\PythonSoftwareFoundation.Python.3.11_3.11.1264.0_x64__qbz5n2kfra8p0\\Lib\\email\\iterators.py',
   'PYMODULE'),
  ('email.message',
   'C:\\Program '
   'Files\\WindowsApps\\PythonSoftwareFoundation.Python.3.11_3.11.1264.0_x64__qbz5n2kfra8p0\\Lib\\email\\message.py',
   'PYMODULE'),
  ('email.parser',
   'C:\\Program '
   'Files\\WindowsApps\\PythonSoftwareFoundation.Python.3.11_3.11.1264.0_x64__qbz5n2kfra8p0\\Lib\\email\\parser.py',
   'PYMODULE'),
  ('email.policy',
   'C:\\Program '
   'Files\\WindowsApps\\PythonSoftwareFoundation.Python.3.11_3.11.1264.0_x64__qbz5n2kfra8p0\\Lib\\email\\policy.py',
   'PYMODULE'),
  ('email.quoprimime',
   'C:\\Program '
   'Files\\WindowsApps\\PythonSoftwareFoundation.Python.3.11_3.11.1264.0_x64__qbz5n2kfra8p0\\Lib\\email\\quoprimime.py',
   'PYMODULE'),
  ('email.utils',
   'C:\\Program '
   'Files\\WindowsApps\\PythonSoftwareFoundation.Python.3.11_3.11.1264.0_x64__qbz5n2kfra8p0\\Lib\\email\\utils.py',
   'PYMODULE'),
  ('fractions',
   'C:\\Program '
   'Files\\WindowsApps\\PythonSoftwareFoundation.Python.3.11_3.11.1264.0_x64__qbz5n2kfra8p0\\Lib\\fractions.py',
   'PYMODULE'),
  ('ftplib',
   'C:\\Program '
   'Files\\WindowsApps\\PythonSoftwareFoundation.Python.3.11_3.11.1264.0_x64__qbz5n2kfra8p0\\Lib\\ftplib.py',
   'PYMODULE'),
  ('getopt',
   'C:\\Program '
   'Files\\WindowsApps\\PythonSoftwareFoundation.Python.3.11_3.11.1264.0_x64__qbz5n2kfra8p0\\Lib\\getopt.py',
   'PYMODULE'),
  ('getpass',
   'C:\\Program '
   'Files\\WindowsApps\\PythonSoftwareFoundation.Python.3.11_3.11.1264.0_x64__qbz5n2kfra8p0\\Lib\\getpass.py',
   'PYMODULE'),
  ('gettext',
   'C:\\Program '
   'Files\\WindowsApps\\PythonSoftwareFoundation.Python.3.11_3.11.1264.0_x64__qbz5n2kfra8p0\\Lib\\gettext.py',
   'PYMODULE'),
  ('gzip',
   'C:\\Program '
   'Files\\WindowsApps\\PythonSoftwareFoundation.Python.3.11_3.11.1264.0_x64__qbz5n2kfra8p0\\Lib\\gzip.py',
   'PYMODULE'),
  ('hashlib',
   'C:\\Program '
   'Files\\WindowsApps\\PythonSoftwareFoundation.Python.3.11_3.11.1264.0_x64__qbz5n2kfra8p0\\Lib\\hashlib.py',
   'PYMODULE'),
  ('hmac',
   'C:\\Program '
   'Files\\WindowsApps\\PythonSoftwareFoundation.Python.3.11_3.11.1264.0_x64__qbz5n2kfra8p0\\Lib\\hmac.py',
   'PYMODULE'),
  ('http',
   'C:\\Program '
   'Files\\WindowsApps\\PythonSoftwareFoundation.Python.3.11_3.11.1264.0_x64__qbz5n2kfra8p0\\Lib\\http\\__init__.py',
   'PYMODULE'),
  ('http.client',
   'C:\\Program '
   'Files\\WindowsApps\\PythonSoftwareFoundation.Python.3.11_3.11.1264.0_x64__qbz5n2kfra8p0\\Lib\\http\\client.py',
   'PYMODULE'),
  ('http.cookiejar',
   'C:\\Program '
   'Files\\WindowsApps\\PythonSoftwareFoundation.Python.3.11_3.11.1264.0_x64__qbz5n2kfra8p0\\Lib\\http\\cookiejar.py',
   'PYMODULE'),
  ('importlib',
   'C:\\Program '
   'Files\\WindowsApps\\PythonSoftwareFoundation.Python.3.11_3.11.1264.0_x64__qbz5n2kfra8p0\\Lib\\importlib\\__init__.py',
   'PYMODULE'),
  ('importlib._abc',
   'C:\\Program '
   'Files\\WindowsApps\\PythonSoftwareFoundation.Python.3.11_3.11.1264.0_x64__qbz5n2kfra8p0\\Lib\\importlib\\_abc.py',
   'PYMODULE'),
  ('importlib._bootstrap',
   'C:\\Program '
   'Files\\WindowsApps\\PythonSoftwareFoundation.Python.3.11_3.11.1264.0_x64__qbz5n2kfra8p0\\Lib\\importlib\\_bootstrap.py',
   'PYMODULE'),
  ('importlib._bootstrap_external',
   'C:\\Program '
   'Files\\WindowsApps\\PythonSoftwareFoundation.Python.3.11_3.11.1264.0_x64__qbz5n2kfra8p0\\Lib\\importlib\\_bootstrap_external.py',
   'PYMODULE'),
  ('importlib.abc',
   'C:\\Program '
   'Files\\WindowsApps\\PythonSoftwareFoundation.Python.3.11_3.11.1264.0_x64__qbz5n2kfra8p0\\Lib\\importlib\\abc.py',
   'PYMODULE'),
  ('importlib.machinery',
   'C:\\Program '
   'Files\\WindowsApps\\PythonSoftwareFoundation.Python.3.11_3.11.1264.0_x64__qbz5n2kfra8p0\\Lib\\importlib\\machinery.py',
   'PYMODULE'),
  ('importlib.metadata',
   'C:\\Program '
   'Files\\WindowsApps\\PythonSoftwareFoundation.Python.3.11_3.11.1264.0_x64__qbz5n2kfra8p0\\Lib\\importlib\\metadata\\__init__.py',
   'PYMODULE'),
  ('importlib.metadata._adapters',
   'C:\\Program '
   'Files\\WindowsApps\\PythonSoftwareFoundation.Python.3.11_3.11.1264.0_x64__qbz5n2kfra8p0\\Lib\\importlib\\metadata\\_adapters.py',
   'PYMODULE'),
  ('importlib.metadata._collections',
   'C:\\Program '
   'Files\\WindowsApps\\PythonSoftwareFoundation.Python.3.11_3.11.1264.0_x64__qbz5n2kfra8p0\\Lib\\importlib\\metadata\\_collections.py',
   'PYMODULE'),
  ('importlib.metadata._functools',
   'C:\\Program '
   'Files\\WindowsApps\\PythonSoftwareFoundation.Python.3.11_3.11.1264.0_x64__qbz5n2kfra8p0\\Lib\\importlib\\metadata\\_functools.py',
   'PYMODULE'),
  ('importlib.metadata._itertools',
   'C:\\Program '
   'Files\\WindowsApps\\PythonSoftwareFoundation.Python.3.11_3.11.1264.0_x64__qbz5n2kfra8p0\\Lib\\importlib\\metadata\\_itertools.py',
   'PYMODULE'),
  ('importlib.metadata._meta',
   'C:\\Program '
   'Files\\WindowsApps\\PythonSoftwareFoundation.Python.3.11_3.11.1264.0_x64__qbz5n2kfra8p0\\Lib\\importlib\\metadata\\_meta.py',
   'PYMODULE'),
  ('importlib.metadata._text',
   'C:\\Program '
   'Files\\WindowsApps\\PythonSoftwareFoundation.Python.3.11_3.11.1264.0_x64__qbz5n2kfra8p0\\Lib\\importlib\\metadata\\_text.py',
   'PYMODULE'),
  ('importlib.readers',
   'C:\\Program '
   'Files\\WindowsApps\\PythonSoftwareFoundation.Python.3.11_3.11.1264.0_x64__qbz5n2kfra8p0\\Lib\\importlib\\readers.py',
   'PYMODULE'),
  ('importlib.resources',
   'C:\\Program '
   'Files\\WindowsApps\\PythonSoftwareFoundation.Python.3.11_3.11.1264.0_x64__qbz5n2kfra8p0\\Lib\\importlib\\resources\\__init__.py',
   'PYMODULE'),
  ('importlib.resources._adapters',
   'C:\\Program '
   'Files\\WindowsApps\\PythonSoftwareFoundation.Python.3.11_3.11.1264.0_x64__qbz5n2kfra8p0\\Lib\\importlib\\resources\\_adapters.py',
   'PYMODULE'),
  ('importlib.resources._common',
   'C:\\Program '
   'Files\\WindowsApps\\PythonSoftwareFoundation.Python.3.11_3.11.1264.0_x64__qbz5n2kfra8p0\\Lib\\importlib\\resources\\_common.py',
   'PYMODULE'),
  ('importlib.resources._itertools',
   'C:\\Program '
   'Files\\WindowsApps\\PythonSoftwareFoundation.Python.3.11_3.11.1264.0_x64__qbz5n2kfra8p0\\Lib\\importlib\\resources\\_itertools.py',
   'PYMODULE'),
  ('importlib.resources._legacy',
   'C:\\Program '
   'Files\\WindowsApps\\PythonSoftwareFoundation.Python.3.11_3.11.1264.0_x64__qbz5n2kfra8p0\\Lib\\importlib\\resources\\_legacy.py',
   'PYMODULE'),
  ('importlib.resources.abc',
   'C:\\Program '
   'Files\\WindowsApps\\PythonSoftwareFoundation.Python.3.11_3.11.1264.0_x64__qbz5n2kfra8p0\\Lib\\importlib\\resources\\abc.py',
   'PYMODULE'),
  ('importlib.resources.readers',
   'C:\\Program '
   'Files\\WindowsApps\\PythonSoftwareFoundation.Python.3.11_3.11.1264.0_x64__qbz5n2kfra8p0\\Lib\\importlib\\resources\\readers.py',
   'PYMODULE'),
  ('importlib.util',
   'C:\\Program '
   'Files\\WindowsApps\\PythonSoftwareFoundation.Python.3.11_3.11.1264.0_x64__qbz5n2kfra8p0\\Lib\\importlib\\util.py',
   'PYMODULE'),
  ('inspect',
   'C:\\Program '
   'Files\\WindowsApps\\PythonSoftwareFoundation.Python.3.11_3.11.1264.0_x64__qbz5n2kfra8p0\\Lib\\inspect.py',
   'PYMODULE'),
  ('logging',
   'C:\\Program '
   'Files\\WindowsApps\\PythonSoftwareFoundation.Python.3.11_3.11.1264.0_x64__qbz5n2kfra8p0\\Lib\\logging\\__init__.py',
   'PYMODULE'),
  ('lzma',
   'C:\\Program '
   'Files\\WindowsApps\\PythonSoftwareFoundation.Python.3.11_3.11.1264.0_x64__qbz5n2kfra8p0\\Lib\\lzma.py',
   'PYMODULE'),
  ('mimetypes',
   'C:\\Program '
   'Files\\WindowsApps\\PythonSoftwareFoundation.Python.3.11_3.11.1264.0_x64__qbz5n2kfra8p0\\Lib\\mimetypes.py',
   'PYMODULE'),
  ('multiprocessing',
   'C:\\Program '
   'Files\\WindowsApps\\PythonSoftwareFoundation.Python.3.11_3.11.1264.0_x64__qbz5n2kfra8p0\\Lib\\multiprocessing\\__init__.py',
   'PYMODULE'),
  ('multiprocessing.connection',
   'C:\\Program '
   'Files\\WindowsApps\\PythonSoftwareFoundation.Python.3.11_3.11.1264.0_x64__qbz5n2kfra8p0\\Lib\\multiprocessing\\connection.py',
   'PYMODULE'),
  ('multiprocessing.context',
   'C:\\Program '
   'Files\\WindowsApps\\PythonSoftwareFoundation.Python.3.11_3.11.1264.0_x64__qbz5n2kfra8p0\\Lib\\multiprocessing\\context.py',
   'PYMODULE'),
  ('multiprocessing.dummy',
   'C:\\Program '
   'Files\\WindowsApps\\PythonSoftwareFoundation.Python.3.11_3.11.1264.0_x64__qbz5n2kfra8p0\\Lib\\multiprocessing\\dummy\\__init__.py',
   'PYMODULE'),
  ('multiprocessing.dummy.connection',
   'C:\\Program '
   'Files\\WindowsApps\\PythonSoftwareFoundation.Python.3.11_3.11.1264.0_x64__qbz5n2kfra8p0\\Lib\\multiprocessing\\dummy\\connection.py',
   'PYMODULE'),
  ('multiprocessing.forkserver',
   'C:\\Program '
   'Files\\WindowsApps\\PythonSoftwareFoundation.Python.3.11_3.11.1264.0_x64__qbz5n2kfra8p0\\Lib\\multiprocessing\\forkserver.py',
   'PYMODULE'),
  ('multiprocessing.heap',
   'C:\\Program '
   'Files\\WindowsApps\\PythonSoftwareFoundation.Python.3.11_3.11.1264.0_x64__qbz5n2kfra8p0\\Lib\\multiprocessing\\heap.py',
   'PYMODULE'),
  ('multiprocessing.managers',
   'C:\\Program '
   'Files\\WindowsApps\\PythonSoftwareFoundation.Python.3.11_3.11.1264.0_x64__qbz5n2kfra8p0\\Lib\\multiprocessing\\managers.py',
   'PYMODULE'),
  ('multiprocessing.pool',
   'C:\\Program '
   'Files\\WindowsApps\\PythonSoftwareFoundation.Python.3.11_3.11.1264.0_x64__qbz5n2kfra8p0\\Lib\\multiprocessing\\pool.py',
   'PYMODULE'),
  ('multiprocessing.popen_fork',
   'C:\\Program '
   'Files\\WindowsApps\\PythonSoftwareFoundation.Python.3.11_3.11.1264.0_x64__qbz5n2kfra8p0\\Lib\\multiprocessing\\popen_fork.py',
   'PYMODULE'),
  ('multiprocessing.popen_forkserver',
   'C:\\Program '
   'Files\\WindowsApps\\PythonSoftwareFoundation.Python.3.11_3.11.1264.0_x64__qbz5n2kfra8p0\\Lib\\multiprocessing\\popen_forkserver.py',
   'PYMODULE'),
  ('multiprocessing.popen_spawn_posix',
   'C:\\Program '
   'Files\\WindowsApps\\PythonSoftwareFoundation.Python.3.11_3.11.1264.0_x64__qbz5n2kfra8p0\\Lib\\multiprocessing\\popen_spawn_posix.py',
   'PYMODULE'),
  ('multiprocessing.popen_spawn_win32',
   'C:\\Program '
   'Files\\WindowsApps\\PythonSoftwareFoundation.Python.3.11_3.11.1264.0_x64__qbz5n2kfra8p0\\Lib\\multiprocessing\\popen_spawn_win32.py',
   'PYMODULE'),
  ('multiprocessing.process',
   'C:\\Program '
   'Files\\WindowsApps\\PythonSoftwareFoundation.Python.3.11_3.11.1264.0_x64__qbz5n2kfra8p0\\Lib\\multiprocessing\\process.py',
   'PYMODULE'),
  ('multiprocessing.queues',
   'C:\\Program '
   'Files\\WindowsApps\\PythonSoftwareFoundation.Python.3.11_3.11.1264.0_x64__qbz5n2kfra8p0\\Lib\\multiprocessing\\queues.py',
   'PYMODULE'),
  ('multiprocessing.reduction',
   'C:\\Program '
   'Files\\WindowsApps\\PythonSoftwareFoundation.Python.3.11_3.11.1264.0_x64__qbz5n2kfra8p0\\Lib\\multiprocessing\\reduction.py',
   'PYMODULE'),
  ('multiprocessing.resource_sharer',
   'C:\\Program '
   'Files\\WindowsApps\\PythonSoftwareFoundation.Python.3.11_3.11.1264.0_x64__qbz5n2kfra8p0\\Lib\\multiprocessing\\resource_sharer.py',
   'PYMODULE'),
  ('multiprocessing.resource_tracker',
   'C:\\Program '
   'Files\\WindowsApps\\PythonSoftwareFoundation.Python.3.11_3.11.1264.0_x64__qbz5n2kfra8p0\\Lib\\multiprocessing\\resource_tracker.py',
   'PYMODULE'),
  ('multiprocessing.shared_memory',
   'C:\\Program '
   'Files\\WindowsApps\\PythonSoftwareFoundation.Python.3.11_3.11.1264.0_x64__qbz5n2kfra8p0\\Lib\\multiprocessing\\shared_memory.py',
   'PYMODULE'),
  ('multiprocessing.sharedctypes',
   'C:\\Program '
   'Files\\WindowsApps\\PythonSoftwareFoundation.Python.3.11_3.11.1264.0_x64__qbz5n2kfra8p0\\Lib\\multiprocessing\\sharedctypes.py',
   'PYMODULE'),
  ('multiprocessing.spawn',
   'C:\\Program '
   'Files\\WindowsApps\\PythonSoftwareFoundation.Python.3.11_3.11.1264.0_x64__qbz5n2kfra8p0\\Lib\\multiprocessing\\spawn.py',
   'PYMODULE'),
  ('multiprocessing.synchronize',
   'C:\\Program '
   'Files\\WindowsApps\\PythonSoftwareFoundation.Python.3.11_3.11.1264.0_x64__qbz5n2kfra8p0\\Lib\\multiprocessing\\synchronize.py',
   'PYMODULE'),
  ('multiprocessing.util',
   'C:\\Program '
   'Files\\WindowsApps\\PythonSoftwareFoundation.Python.3.11_3.11.1264.0_x64__qbz5n2kfra8p0\\Lib\\multiprocessing\\util.py',
   'PYMODULE'),
  ('netrc',
   'C:\\Program '
   'Files\\WindowsApps\\PythonSoftwareFoundation.Python.3.11_3.11.1264.0_x64__qbz5n2kfra8p0\\Lib\\netrc.py',
   'PYMODULE'),
  ('nturl2path',
   'C:\\Program '
   'Files\\WindowsApps\\PythonSoftwareFoundation.Python.3.11_3.11.1264.0_x64__qbz5n2kfra8p0\\Lib\\nturl2path.py',
   'PYMODULE'),
  ('numbers',
   'C:\\Program '
   'Files\\WindowsApps\\PythonSoftwareFoundation.Python.3.11_3.11.1264.0_x64__qbz5n2kfra8p0\\Lib\\numbers.py',
   'PYMODULE'),
  ('opcode',
   'C:\\Program '
   'Files\\WindowsApps\\PythonSoftwareFoundation.Python.3.11_3.11.1264.0_x64__qbz5n2kfra8p0\\Lib\\opcode.py',
   'PYMODULE'),
  ('pickle',
   'C:\\Program '
   'Files\\WindowsApps\\PythonSoftwareFoundation.Python.3.11_3.11.1264.0_x64__qbz5n2kfra8p0\\Lib\\pickle.py',
   'PYMODULE'),
  ('pkgutil',
   'C:\\Program '
   'Files\\WindowsApps\\PythonSoftwareFoundation.Python.3.11_3.11.1264.0_x64__qbz5n2kfra8p0\\Lib\\pkgutil.py',
   'PYMODULE'),
  ('platform',
   'C:\\Program '
   'Files\\WindowsApps\\PythonSoftwareFoundation.Python.3.11_3.11.1264.0_x64__qbz5n2kfra8p0\\Lib\\platform.py',
   'PYMODULE'),
  ('pprint',
   'C:\\Program '
   'Files\\WindowsApps\\PythonSoftwareFoundation.Python.3.11_3.11.1264.0_x64__qbz5n2kfra8p0\\Lib\\pprint.py',
   'PYMODULE'),
  ('py_compile',
   'C:\\Program '
   'Files\\WindowsApps\\PythonSoftwareFoundation.Python.3.11_3.11.1264.0_x64__qbz5n2kfra8p0\\Lib\\py_compile.py',
   'PYMODULE'),
  ('pymongo',
   'd:\\viscode\\py\\.venv\\Lib\\site-packages\\pymongo\\__init__.py',
   'PYMODULE'),
  ('pymongo._csot',
   'd:\\viscode\\py\\.venv\\Lib\\site-packages\\pymongo\\_csot.py',
   'PYMODULE'),
  ('pymongo._version',
   'd:\\viscode\\py\\.venv\\Lib\\site-packages\\pymongo\\_version.py',
   'PYMODULE'),
  ('pymongo.aggregation',
   'd:\\viscode\\py\\.venv\\Lib\\site-packages\\pymongo\\aggregation.py',
   'PYMODULE'),
  ('pymongo.auth',
   'd:\\viscode\\py\\.venv\\Lib\\site-packages\\pymongo\\auth.py',
   'PYMODULE'),
  ('pymongo.auth_aws',
   'd:\\viscode\\py\\.venv\\Lib\\site-packages\\pymongo\\auth_aws.py',
   'PYMODULE'),
  ('pymongo.auth_oidc',
   'd:\\viscode\\py\\.venv\\Lib\\site-packages\\pymongo\\auth_oidc.py',
   'PYMODULE'),
  ('pymongo.bulk',
   'd:\\viscode\\py\\.venv\\Lib\\site-packages\\pymongo\\bulk.py',
   'PYMODULE'),
  ('pymongo.change_stream',
   'd:\\viscode\\py\\.venv\\Lib\\site-packages\\pymongo\\change_stream.py',
   'PYMODULE'),
  ('pymongo.client_options',
   'd:\\viscode\\py\\.venv\\Lib\\site-packages\\pymongo\\client_options.py',
   'PYMODULE'),
  ('pymongo.client_session',
   'd:\\viscode\\py\\.venv\\Lib\\site-packages\\pymongo\\client_session.py',
   'PYMODULE'),
  ('pymongo.collation',
   'd:\\viscode\\py\\.venv\\Lib\\site-packages\\pymongo\\collation.py',
   'PYMODULE'),
  ('pymongo.collection',
   'd:\\viscode\\py\\.venv\\Lib\\site-packages\\pymongo\\collection.py',
   'PYMODULE'),
  ('pymongo.command_cursor',
   'd:\\viscode\\py\\.venv\\Lib\\site-packages\\pymongo\\command_cursor.py',
   'PYMODULE'),
  ('pymongo.common',
   'd:\\viscode\\py\\.venv\\Lib\\site-packages\\pymongo\\common.py',
   'PYMODULE'),
  ('pymongo.compression_support',
   'd:\\viscode\\py\\.venv\\Lib\\site-packages\\pymongo\\compression_support.py',
   'PYMODULE'),
  ('pymongo.cursor',
   'd:\\viscode\\py\\.venv\\Lib\\site-packages\\pymongo\\cursor.py',
   'PYMODULE'),
  ('pymongo.daemon',
   'd:\\viscode\\py\\.venv\\Lib\\site-packages\\pymongo\\daemon.py',
   'PYMODULE'),
  ('pymongo.database',
   'd:\\viscode\\py\\.venv\\Lib\\site-packages\\pymongo\\database.py',
   'PYMODULE'),
  ('pymongo.driver_info',
   'd:\\viscode\\py\\.venv\\Lib\\site-packages\\pymongo\\driver_info.py',
   'PYMODULE'),
  ('pymongo.encryption',
   'd:\\viscode\\py\\.venv\\Lib\\site-packages\\pymongo\\encryption.py',
   'PYMODULE'),
  ('pymongo.encryption_options',
   'd:\\viscode\\py\\.venv\\Lib\\site-packages\\pymongo\\encryption_options.py',
   'PYMODULE'),
  ('pymongo.errors',
   'd:\\viscode\\py\\.venv\\Lib\\site-packages\\pymongo\\errors.py',
   'PYMODULE'),
  ('pymongo.hello',
   'd:\\viscode\\py\\.venv\\Lib\\site-packages\\pymongo\\hello.py',
   'PYMODULE'),
  ('pymongo.helpers',
   'd:\\viscode\\py\\.venv\\Lib\\site-packages\\pymongo\\helpers.py',
   'PYMODULE'),
  ('pymongo.lock',
   'd:\\viscode\\py\\.venv\\Lib\\site-packages\\pymongo\\lock.py',
   'PYMODULE'),
  ('pymongo.max_staleness_selectors',
   'd:\\viscode\\py\\.venv\\Lib\\site-packages\\pymongo\\max_staleness_selectors.py',
   'PYMODULE'),
  ('pymongo.message',
   'd:\\viscode\\py\\.venv\\Lib\\site-packages\\pymongo\\message.py',
   'PYMODULE'),
  ('pymongo.mongo_client',
   'd:\\viscode\\py\\.venv\\Lib\\site-packages\\pymongo\\mongo_client.py',
   'PYMODULE'),
  ('pymongo.monitor',
   'd:\\viscode\\py\\.venv\\Lib\\site-packages\\pymongo\\monitor.py',
   'PYMODULE'),
  ('pymongo.monitoring',
   'd:\\viscode\\py\\.venv\\Lib\\site-packages\\pymongo\\monitoring.py',
   'PYMODULE'),
  ('pymongo.network',
   'd:\\viscode\\py\\.venv\\Lib\\site-packages\\pymongo\\network.py',
   'PYMODULE'),
  ('pymongo.ocsp_cache',
   'd:\\viscode\\py\\.venv\\Lib\\site-packages\\pymongo\\ocsp_cache.py',
   'PYMODULE'),
  ('pymongo.ocsp_support',
   'd:\\viscode\\py\\.venv\\Lib\\site-packages\\pymongo\\ocsp_support.py',
   'PYMODULE'),
  ('pymongo.operations',
   'd:\\viscode\\py\\.venv\\Lib\\site-packages\\pymongo\\operations.py',
   'PYMODULE'),
  ('pymongo.periodic_executor',
   'd:\\viscode\\py\\.venv\\Lib\\site-packages\\pymongo\\periodic_executor.py',
   'PYMODULE'),
  ('pymongo.pool',
   'd:\\viscode\\py\\.venv\\Lib\\site-packages\\pymongo\\pool.py',
   'PYMODULE'),
  ('pymongo.pyopenssl_context',
   'd:\\viscode\\py\\.venv\\Lib\\site-packages\\pymongo\\pyopenssl_context.py',
   'PYMODULE'),
  ('pymongo.read_concern',
   'd:\\viscode\\py\\.venv\\Lib\\site-packages\\pymongo\\read_concern.py',
   'PYMODULE'),
  ('pymongo.read_preferences',
   'd:\\viscode\\py\\.venv\\Lib\\site-packages\\pymongo\\read_preferences.py',
   'PYMODULE'),
  ('pymongo.response',
   'd:\\viscode\\py\\.venv\\Lib\\site-packages\\pymongo\\response.py',
   'PYMODULE'),
  ('pymongo.results',
   'd:\\viscode\\py\\.venv\\Lib\\site-packages\\pymongo\\results.py',
   'PYMODULE'),
  ('pymongo.saslprep',
   'd:\\viscode\\py\\.venv\\Lib\\site-packages\\pymongo\\saslprep.py',
   'PYMODULE'),
  ('pymongo.server',
   'd:\\viscode\\py\\.venv\\Lib\\site-packages\\pymongo\\server.py',
   'PYMODULE'),
  ('pymongo.server_api',
   'd:\\viscode\\py\\.venv\\Lib\\site-packages\\pymongo\\server_api.py',
   'PYMODULE'),
  ('pymongo.server_description',
   'd:\\viscode\\py\\.venv\\Lib\\site-packages\\pymongo\\server_description.py',
   'PYMODULE'),
  ('pymongo.server_selectors',
   'd:\\viscode\\py\\.venv\\Lib\\site-packages\\pymongo\\server_selectors.py',
   'PYMODULE'),
  ('pymongo.server_type',
   'd:\\viscode\\py\\.venv\\Lib\\site-packages\\pymongo\\server_type.py',
   'PYMODULE'),
  ('pymongo.settings',
   'd:\\viscode\\py\\.venv\\Lib\\site-packages\\pymongo\\settings.py',
   'PYMODULE'),
  ('pymongo.socket_checker',
   'd:\\viscode\\py\\.venv\\Lib\\site-packages\\pymongo\\socket_checker.py',
   'PYMODULE'),
  ('pymongo.srv_resolver',
   'd:\\viscode\\py\\.venv\\Lib\\site-packages\\pymongo\\srv_resolver.py',
   'PYMODULE'),
  ('pymongo.ssl_context',
   'd:\\viscode\\py\\.venv\\Lib\\site-packages\\pymongo\\ssl_context.py',
   'PYMODULE'),
  ('pymongo.ssl_support',
   'd:\\viscode\\py\\.venv\\Lib\\site-packages\\pymongo\\ssl_support.py',
   'PYMODULE'),
  ('pymongo.topology',
   'd:\\viscode\\py\\.venv\\Lib\\site-packages\\pymongo\\topology.py',
   'PYMODULE'),
  ('pymongo.topology_description',
   'd:\\viscode\\py\\.venv\\Lib\\site-packages\\pymongo\\topology_description.py',
   'PYMODULE'),
  ('pymongo.typings',
   'd:\\viscode\\py\\.venv\\Lib\\site-packages\\pymongo\\typings.py',
   'PYMODULE'),
  ('pymongo.uri_parser',
   'd:\\viscode\\py\\.venv\\Lib\\site-packages\\pymongo\\uri_parser.py',
   'PYMODULE'),
  ('pymongo.write_concern',
   'd:\\viscode\\py\\.venv\\Lib\\site-packages\\pymongo\\write_concern.py',
   'PYMODULE'),
  ('queue',
   'C:\\Program '
   'Files\\WindowsApps\\PythonSoftwareFoundation.Python.3.11_3.11.1264.0_x64__qbz5n2kfra8p0\\Lib\\queue.py',
   'PYMODULE'),
  ('quopri',
   'C:\\Program '
   'Files\\WindowsApps\\PythonSoftwareFoundation.Python.3.11_3.11.1264.0_x64__qbz5n2kfra8p0\\Lib\\quopri.py',
   'PYMODULE'),
  ('random',
   'C:\\Program '
   'Files\\WindowsApps\\PythonSoftwareFoundation.Python.3.11_3.11.1264.0_x64__qbz5n2kfra8p0\\Lib\\random.py',
   'PYMODULE'),
  ('runpy',
   'C:\\Program '
   'Files\\WindowsApps\\PythonSoftwareFoundation.Python.3.11_3.11.1264.0_x64__qbz5n2kfra8p0\\Lib\\runpy.py',
   'PYMODULE'),
  ('secrets',
   'C:\\Program '
   'Files\\WindowsApps\\PythonSoftwareFoundation.Python.3.11_3.11.1264.0_x64__qbz5n2kfra8p0\\Lib\\secrets.py',
   'PYMODULE'),
  ('selectors',
   'C:\\Program '
   'Files\\WindowsApps\\PythonSoftwareFoundation.Python.3.11_3.11.1264.0_x64__qbz5n2kfra8p0\\Lib\\selectors.py',
   'PYMODULE'),
  ('shlex',
   'C:\\Program '
   'Files\\WindowsApps\\PythonSoftwareFoundation.Python.3.11_3.11.1264.0_x64__qbz5n2kfra8p0\\Lib\\shlex.py',
   'PYMODULE'),
  ('shutil',
   'C:\\Program '
   'Files\\WindowsApps\\PythonSoftwareFoundation.Python.3.11_3.11.1264.0_x64__qbz5n2kfra8p0\\Lib\\shutil.py',
   'PYMODULE'),
  ('signal',
   'C:\\Program '
   'Files\\WindowsApps\\PythonSoftwareFoundation.Python.3.11_3.11.1264.0_x64__qbz5n2kfra8p0\\Lib\\signal.py',
   'PYMODULE'),
  ('socket',
   'C:\\Program '
   'Files\\WindowsApps\\PythonSoftwareFoundation.Python.3.11_3.11.1264.0_x64__qbz5n2kfra8p0\\Lib\\socket.py',
   'PYMODULE'),
  ('ssl',
   'C:\\Program '
   'Files\\WindowsApps\\PythonSoftwareFoundation.Python.3.11_3.11.1264.0_x64__qbz5n2kfra8p0\\Lib\\ssl.py',
   'PYMODULE'),
  ('statistics',
   'C:\\Program '
   'Files\\WindowsApps\\PythonSoftwareFoundation.Python.3.11_3.11.1264.0_x64__qbz5n2kfra8p0\\Lib\\statistics.py',
   'PYMODULE'),
  ('string',
   'C:\\Program '
   'Files\\WindowsApps\\PythonSoftwareFoundation.Python.3.11_3.11.1264.0_x64__qbz5n2kfra8p0\\Lib\\string.py',
   'PYMODULE'),
  ('stringprep',
   'C:\\Program '
   'Files\\WindowsApps\\PythonSoftwareFoundation.Python.3.11_3.11.1264.0_x64__qbz5n2kfra8p0\\Lib\\stringprep.py',
   'PYMODULE'),
  ('subprocess',
   'C:\\Program '
   'Files\\WindowsApps\\PythonSoftwareFoundation.Python.3.11_3.11.1264.0_x64__qbz5n2kfra8p0\\Lib\\subprocess.py',
   'PYMODULE'),
  ('tarfile',
   'C:\\Program '
   'Files\\WindowsApps\\PythonSoftwareFoundation.Python.3.11_3.11.1264.0_x64__qbz5n2kfra8p0\\Lib\\tarfile.py',
   'PYMODULE'),
  ('tempfile',
   'C:\\Program '
   'Files\\WindowsApps\\PythonSoftwareFoundation.Python.3.11_3.11.1264.0_x64__qbz5n2kfra8p0\\Lib\\tempfile.py',
   'PYMODULE'),
  ('textwrap',
   'C:\\Program '
   'Files\\WindowsApps\\PythonSoftwareFoundation.Python.3.11_3.11.1264.0_x64__qbz5n2kfra8p0\\Lib\\textwrap.py',
   'PYMODULE'),
  ('threading',
   'C:\\Program '
   'Files\\WindowsApps\\PythonSoftwareFoundation.Python.3.11_3.11.1264.0_x64__qbz5n2kfra8p0\\Lib\\threading.py',
   'PYMODULE'),
  ('tracemalloc',
   'C:\\Program '
   'Files\\WindowsApps\\PythonSoftwareFoundation.Python.3.11_3.11.1264.0_x64__qbz5n2kfra8p0\\Lib\\tracemalloc.py',
   'PYMODULE'),
  ('typing',
   'C:\\Program '
   'Files\\WindowsApps\\PythonSoftwareFoundation.Python.3.11_3.11.1264.0_x64__qbz5n2kfra8p0\\Lib\\typing.py',
   'PYMODULE'),
  ('uuid',
   'C:\\Program '
   'Files\\WindowsApps\\PythonSoftwareFoundation.Python.3.11_3.11.1264.0_x64__qbz5n2kfra8p0\\Lib\\uuid.py',
   'PYMODULE'),
  ('xml',
   'C:\\Program '
   'Files\\WindowsApps\\PythonSoftwareFoundation.Python.3.11_3.11.1264.0_x64__qbz5n2kfra8p0\\Lib\\xml\\__init__.py',
   'PYMODULE'),
  ('xml.parsers',
   'C:\\Program '
   'Files\\WindowsApps\\PythonSoftwareFoundation.Python.3.11_3.11.1264.0_x64__qbz5n2kfra8p0\\Lib\\xml\\parsers\\__init__.py',
   'PYMODULE'),
  ('xml.parsers.expat',
   'C:\\Program '
   'Files\\WindowsApps\\PythonSoftwareFoundation.Python.3.11_3.11.1264.0_x64__qbz5n2kfra8p0\\Lib\\xml\\parsers\\expat.py',
   'PYMODULE'),
  ('xml.sax',
   'C:\\Program '
   'Files\\WindowsApps\\PythonSoftwareFoundation.Python.3.11_3.11.1264.0_x64__qbz5n2kfra8p0\\Lib\\xml\\sax\\__init__.py',
   'PYMODULE'),
  ('xml.sax._exceptions',
   'C:\\Program '
   'Files\\WindowsApps\\PythonSoftwareFoundation.Python.3.11_3.11.1264.0_x64__qbz5n2kfra8p0\\Lib\\xml\\sax\\_exceptions.py',
   'PYMODULE'),
  ('xml.sax.expatreader',
   'C:\\Program '
   'Files\\WindowsApps\\PythonSoftwareFoundation.Python.3.11_3.11.1264.0_x64__qbz5n2kfra8p0\\Lib\\xml\\sax\\expatreader.py',
   'PYMODULE'),
  ('xml.sax.handler',
   'C:\\Program '
   'Files\\WindowsApps\\PythonSoftwareFoundation.Python.3.11_3.11.1264.0_x64__qbz5n2kfra8p0\\Lib\\xml\\sax\\handler.py',
   'PYMODULE'),
  ('xml.sax.saxutils',
   'C:\\Program '
   'Files\\WindowsApps\\PythonSoftwareFoundation.Python.3.11_3.11.1264.0_x64__qbz5n2kfra8p0\\Lib\\xml\\sax\\saxutils.py',
   'PYMODULE'),
  ('xml.sax.xmlreader',
   'C:\\Program '
   'Files\\WindowsApps\\PythonSoftwareFoundation.Python.3.11_3.11.1264.0_x64__qbz5n2kfra8p0\\Lib\\xml\\sax\\xmlreader.py',
   'PYMODULE'),
  ('xmlrpc',
   'C:\\Program '
   'Files\\WindowsApps\\PythonSoftwareFoundation.Python.3.11_3.11.1264.0_x64__qbz5n2kfra8p0\\Lib\\xmlrpc\\__init__.py',
   'PYMODULE'),
  ('xmlrpc.client',
   'C:\\Program '
   'Files\\WindowsApps\\PythonSoftwareFoundation.Python.3.11_3.11.1264.0_x64__qbz5n2kfra8p0\\Lib\\xmlrpc\\client.py',
   'PYMODULE'),
  ('zipfile',
   'C:\\Program '
   'Files\\WindowsApps\\PythonSoftwareFoundation.Python.3.11_3.11.1264.0_x64__qbz5n2kfra8p0\\Lib\\zipfile.py',
   'PYMODULE'),
  ('zipimport',
   'C:\\Program '
   'Files\\WindowsApps\\PythonSoftwareFoundation.Python.3.11_3.11.1264.0_x64__qbz5n2kfra8p0\\Lib\\zipimport.py',
   'PYMODULE')])
